module gitlab.torproject.org/meskio/telegram-bridge-bot

go 1.17

require (
	github.com/prometheus/client_golang v1.11.0
	go.etcd.io/bbolt v1.3.6
	gopkg.in/tucnak/telebot.v2 v2.4.1
)

require (
	github.com/beorn7/perks v1.0.1 // indirect
	github.com/cespare/xxhash/v2 v2.1.1 // indirect
	github.com/golang/protobuf v1.4.3 // indirect
	github.com/matttproud/golang_protobuf_extensions v1.0.1 // indirect
	github.com/pkg/errors v0.9.1 // indirect
	github.com/prometheus/client_model v0.2.0 // indirect
	github.com/prometheus/common v0.26.0 // indirect
	github.com/prometheus/procfs v0.6.0 // indirect
	golang.org/x/sys v0.0.0-20210603081109-ebe580a85c40 // indirect
	google.golang.org/protobuf v1.26.0-rc.1 // indirect
)
